{
  "fields":
  {
            "pk": 									{	"type": "date",		"name": "PK"	},
            "total_network_cabs_count": 				{	"type": "number",	"name": "total_network_cabs_Count",			"optional": true	},
			"total_network_cabs_inactive_msa": 		{	"type": "number",	"name": "total_network_cabs_Inactive_MSA",	"optional": true	},
			"total_network_cabs_exp_nxt12": 			{	"type": "number",	"name": "total_network_cabs_Exp_Nxt12",	"optional": true	},
			"total_network_cabs_inactivesfa": 		{	"type": "number",	"name": "total_network_cabs_InactiveSFA",	"optional": true	},
			"total_network_cab_backlog":			{	"type": "number",	"name": "total_network_cab_BackLog",	"optional": true	},
			"total_network_cabs_outofservice": 			{	"type": "number",	"name": "total_network_cabs_outofservice",		"optional": true	},
			"total_network_cabs_outagehrs": 		{	"type": "number",	"name": "total_network_cabs_OutageHrs",		"optional": true	},
			"total_network_cab_reliability": 		{	"type": "number",	"name": "total_network_cab_Reliability",		"optional": true	}				
        }
}    
